/Users/xuesong/storage/代码/java/NCP_Virtual/src/main/java/Main.java
/Users/xuesong/storage/代码/java/NCP_Virtual/src/main/java/Person.java
/Users/xuesong/storage/代码/java/NCP_Virtual/src/main/java/SliderPanel.java
/Users/xuesong/storage/代码/java/NCP_Virtual/src/main/java/Point.java
/Users/xuesong/storage/代码/java/NCP_Virtual/src/main/java/MyPanel.java
/Users/xuesong/storage/代码/java/NCP_Virtual/src/main/java/Constants.java
/Users/xuesong/storage/代码/java/NCP_Virtual/src/main/java/City.java
/Users/xuesong/storage/代码/java/NCP_Virtual/src/main/java/PersonPool.java
/Users/xuesong/storage/代码/java/NCP_Virtual/src/main/java/Hospital.java
/Users/xuesong/storage/代码/java/NCP_Virtual/src/main/java/Bed.java
/Users/xuesong/storage/代码/java/NCP_Virtual/src/main/java/Virus.java
/Users/xuesong/storage/代码/java/NCP_Virtual/src/main/java/MathUtil.java
/Users/xuesong/storage/代码/java/NCP_Virtual/src/main/java/MoveTarget.java
